<?xml version="1.0" encoding="utf-8"?>
<!-- Generator: Adobe Illustrator 24.0.1, SVG Export Plug-In . SVG Version: 6.00 Build 0)  -->
<svg version="1.1" id="Слой_1" xmlns="http://www.w3.org/2000/svg" xmlns:xlink="http://www.w3.org/1999/xlink" x="0px" y="0px"
	 viewBox="0 0 3229.25 2000" style="enable-background:new 0 0 3229.25 2000;" xml:space="preserve">
<style type="text/css">
	.st0{display:none;fill:#FAFAFA;}
	.st1{fill:url(#SVGID_1_);}
	.st2{fill:url(#SVGID_2_);}
	.st3{fill:#F3F3F3;}
	.st4{fill:#FFFFFF;}
	.st5{fill:url(#SVGID_3_);}
	.st6{fill:url(#SVGID_4_);}
	.st7{fill:url(#SVGID_5_);}
	.st8{fill:url(#SVGID_6_);}
	.st9{fill:#E0E0E0;}
	.st10{fill:url(#SVGID_7_);}
	.st11{fill:url(#SVGID_8_);}
	.st12{fill:url(#SVGID_9_);}
	.st13{fill:url(#SVGID_10_);}
	.st14{fill:url(#SVGID_11_);}
	.st15{fill:url(#SVGID_12_);}
	.st16{fill:#F5F5F5;}
	.st17{fill:url(#SVGID_13_);}
	.st18{fill:url(#SVGID_14_);}
	.st19{fill:url(#SVGID_15_);}
	.st20{fill:url(#SVGID_16_);}
	.st21{fill:#4E7ED6;}
	.st22{fill:url(#SVGID_17_);}
	.st23{fill:#537FFD;}
	.st24{fill:#4BA6F3;}
	.st25{fill:#46BBED;}
	.st26{fill:url(#SVGID_18_);}
	.st27{fill:url(#SVGID_19_);}
	.st28{fill:url(#SVGID_20_);}
	.st29{fill:url(#SVGID_21_);}
	.st30{fill:url(#SVGID_22_);}
	.st31{fill:url(#SVGID_23_);}
	.st32{fill:#2D5BAD;}
	.st33{fill:#5D96FF;}
	.st34{fill:#E2D2CA;}
	.st35{fill:#706865;}
	.st36{fill:#CCBDB7;}
	.st37{fill:#998E89;}
	.st38{fill:#B59074;}
	.st39{fill:#424773;}
	.st40{fill:#292C47;}
	.st41{fill:#EEA886;}
	.st42{fill:#3A3F47;}
	.st43{fill:#323657;}
	.st44{fill:#918783;}
	.st45{fill:#5E5854;}
	.st46{fill:#BFB2AC;}
	.st47{fill:#B8ABA5;}
	.st48{fill:#F5F7FF;}
	.st49{fill:#918681;}
	.st50{fill:#DBDFF0;}
	.st51{fill:#DFE1E8;}
	.st52{fill:#8E4F3A;}
	.st53{fill:#5E3527;}
	.st54{fill:#7A4432;}
	.st55{fill:#353A3D;}
	.st56{fill:#81807E;}
	.st57{fill:#2D3133;}
	.st58{fill:#BCC0CF;}
	.st59{fill:#633029;}
	.st60{fill:#434343;}
	.st61{fill:#E0CEC7;}
	.st62{fill:#616161;}
	.st63{fill:#A7AAB8;}
	.st64{fill:#C6CAD9;}
	.st65{fill:#163342;}
	.st66{fill:#2F4563;}
	.st67{fill:#AAADBA;}
	.st68{fill:#EEA987;}
	.st69{fill:#A77860;}
	.st70{fill:#182746;}
	.st71{fill:#808285;}
	.st72{fill:#364D81;}
	.st73{fill:#4C72B1;}
	.st74{fill:#293F68;}
	.st75{fill:#1F3C68;}
	.st76{fill:#192A48;}
	.st77{fill:#E6E7E8;}
	.st78{fill:#F1F2F2;}
	.st79{fill:#58595B;}
</style>
<g>
	<rect class="st0" width="3229.25" height="2000"/>
	<g>
		<g>
			<linearGradient id="SVGID_1_" gradientUnits="userSpaceOnUse" x1="1782.0532" y1="452.2846" x2="2173.3003" y2="452.2846">
				<stop  offset="0" style="stop-color:#FF9F55"/>
				<stop  offset="1" style="stop-color:#FFD255"/>
			</linearGradient>
			<path class="st1" d="M1824.4,516.25c6.01,14.43,13.97,27.73,23.49,39.64l-13.97,29.29l28.2,21.16l28.2,21.16l24.21-21.61
				c14.1,5.81,29.09,9.73,44.63,11.46l10.83,30.57l34.9-4.98l34.9-4.98l1.84-32.38c14.43-6.01,27.73-13.97,39.64-23.49l29.29,13.97
				l21.16-28.2l21.16-28.21l-21.61-24.21c5.81-14.1,9.73-29.09,11.46-44.63l30.57-10.83l-4.98-34.9l-4.98-34.9l-32.38-1.84
				c-6.01-14.43-13.97-27.73-23.49-39.64l13.97-29.29l-28.21-21.16l-28.2-21.16l-24.21,21.61c-14.1-5.81-29.09-9.73-44.63-11.46
				l-10.83-30.57l-34.9,4.98l-34.9,4.98l-1.84,32.38c-14.43,6.01-27.73,13.96-39.64,23.49l-29.29-13.97l-21.16,28.2l-21.16,28.21
				l21.61,24.21c-5.81,14.1-9.73,29.09-11.46,44.63l-30.57,10.83l4.98,34.9l4.98,34.9L1824.4,516.25z M1960.21,329.98
				c67.55-9.64,130.12,37.29,139.77,104.84c9.64,67.55-37.29,130.12-104.84,139.77c-67.55,9.64-130.12-37.29-139.77-104.84
				C1845.73,402.2,1892.67,339.63,1960.21,329.98z"/>
		</g>
		<g>
			<linearGradient id="SVGID_2_" gradientUnits="userSpaceOnUse" x1="2136.1011" y1="279.584" x2="2282.6265" y2="279.584">
				<stop  offset="0" style="stop-color:#FF9F55"/>
				<stop  offset="1" style="stop-color:#FFD255"/>
			</linearGradient>
			<path class="st2" d="M2151.96,303.54c2.25,5.4,5.23,10.38,8.8,14.84l-5.23,10.97l10.56,7.92l10.56,7.92l9.07-8.09
				c5.28,2.18,10.9,3.64,16.71,4.29l4.05,11.45l13.07-1.87l13.07-1.87l0.69-12.13c5.4-2.25,10.38-5.23,14.84-8.8l10.97,5.23
				l7.92-10.56l7.92-10.56l-8.09-9.07c2.18-5.28,3.64-10.9,4.29-16.71l11.45-4.06l-1.87-13.07l-1.87-13.07l-12.13-0.69
				c-2.25-5.4-5.23-10.38-8.8-14.84l5.23-10.97l-10.56-7.92l-10.56-7.92l-9.07,8.09c-5.28-2.18-10.9-3.64-16.71-4.29l-4.05-11.45
				l-13.07,1.87l-13.07,1.87l-0.69,12.13c-5.4,2.25-10.38,5.23-14.84,8.8l-10.97-5.23l-7.92,10.56l-7.92,10.56l8.09,9.07
				c-2.18,5.28-3.64,10.9-4.29,16.71l-11.45,4.05l1.87,13.07l1.87,13.07L2151.96,303.54z M2202.82,233.78
				c25.3-3.61,48.73,13.97,52.34,39.26c3.61,25.3-13.97,48.73-39.26,52.34c-25.3,3.61-48.73-13.97-52.34-39.26
				C2159.95,260.83,2177.53,237.39,2202.82,233.78z"/>
		</g>
		<g>
			<rect x="1555.3" y="819.95" class="st3" width="6.67" height="700.16"/>
		</g>
		<rect x="1558.63" y="733.67" class="st4" width="71.94" height="18.25"/>
		<rect x="1558.63" y="767.41" class="st4" width="57.56" height="18.25"/>
		<rect x="1561.97" y="1561.58" class="st4" width="75.49" height="24.33"/>
		<g>
			<g>
				<g>
					<g>
						
							<linearGradient id="SVGID_3_" gradientUnits="userSpaceOnUse" x1="2939.4255" y1="-9319.7168" x2="3256.7991" y2="-9319.7168" gradientTransform="matrix(0.2905 0.9569 -0.9569 0.2905 -7996.1841 488.6884)">
							<stop  offset="0" style="stop-color:#40D5E6"/>
							<stop  offset="1" style="stop-color:#5577FF"/>
						</linearGradient>
						<path class="st5" d="M1835.76,575.83c0,0,146.02,173.13,53.39,285.24s-118.11,2.19-118.11,2.19s-55.43,10.29,40.59-129.93
							C1856.88,667.23,1835.76,575.83,1835.76,575.83z"/>
					</g>
				</g>
			</g>
			<g>
				<g>
					<g>
						<linearGradient id="SVGID_4_" gradientUnits="userSpaceOnUse" x1="1950.8035" y1="816.056" x2="2144.9026" y2="493.8518">
							<stop  offset="0" style="stop-color:#00C9FF"/>
							<stop  offset="1" style="stop-color:#01B5D2"/>
						</linearGradient>
						<path class="st6" d="M2155.81,440.74c0,0,108.48,160.11-80.39,344.54s-174.82,294.43-174.82,294.43
							S1707.5,701.72,2155.81,440.74z"/>
					</g>
				</g>
			</g>
			<g>
				<g>
					<g>
						
							<linearGradient id="SVGID_5_" gradientUnits="userSpaceOnUse" x1="5305.0127" y1="-4083.0803" x2="5272.0166" y2="-4170.4229" gradientTransform="matrix(0.2905 0.9569 -0.9569 0.2905 -7996.1841 488.6884)">
							<stop  offset="0" style="stop-color:#15C7FF"/>
							<stop  offset="1" style="stop-color:#01B5D2"/>
						</linearGradient>
						<path class="st7" d="M1865.34,1010.14c-79.24,7.15,12.7-207.09,136.49-263.02c123.79-55.93,228.52-51.19,300.9-110.2
							C2302.73,636.92,2255.52,974.93,1865.34,1010.14z"/>
					</g>
				</g>
			</g>
		</g>
		<g>
			
				<linearGradient id="SVGID_6_" gradientUnits="userSpaceOnUse" x1="-7376.9297" y1="1489.9667" x2="-7376.9297" y2="1123.0728" gradientTransform="matrix(-1 0 0 1 -6481.4023 0)">
				<stop  offset="0" style="stop-color:#602F80"/>
				<stop  offset="1" style="stop-color:#5770FF"/>
			</linearGradient>
			<rect x="892.19" y="819.95" class="st8" width="6.67" height="700.16"/>
		</g>
		<g>
			<rect x="1366.69" y="819.95" class="st3" width="6.67" height="700.16"/>
		</g>
		<g>
			<rect x="1841.19" y="819.95" class="st3" width="6.67" height="700.16"/>
		</g>
		<rect x="895.53" y="733.67" class="st9" width="113.65" height="18.25"/>
		<rect x="895.53" y="767.41" class="st9" width="161.21" height="18.25"/>
		<rect x="1364.92" y="733.67" class="st4" width="133.43" height="18.25"/>
		<rect x="1364.92" y="767.41" class="st4" width="85.32" height="18.25"/>
		<rect x="1847.87" y="733.67" class="st4" width="82.69" height="18.25"/>
		<rect x="1847.87" y="767.41" class="st4" width="96.37" height="18.25"/>
		<rect x="1370.03" y="1561.58" class="st4" width="75.49" height="24.33"/>
		<rect x="1847.87" y="1561.58" class="st4" width="75.49" height="24.33"/>
		<g>
			<linearGradient id="SVGID_7_" gradientUnits="userSpaceOnUse" x1="895.5231" y1="1105.4124" x2="2733.5884" y2="1105.4124">
				<stop  offset="0" style="stop-color:#FF9F55"/>
				<stop  offset="1" style="stop-color:#FFD255"/>
			</linearGradient>
			<path class="st10" d="M2733.59,994.73v41.82c-35.12-27.98-69.69-49.15-103.91-64.27c-222.11-98.19-429.39,57.54-675.79,245.95
				c-18.09,13.84-35.61,25.76-52.61,35.95c-59.16,35.5-112.07,49.98-160.54,49.98c-46.44,0-88.79-13.28-128.65-34.07
				c-53.93-28.13-103.31-69.99-152.08-111.32c-64.31-54.53-131.02-110.3-208.04-137.79c-235.08-83.94-355.35,69.31-356.44,70.66
				v-46.59c1.28-1.62,22.71-29.45,84.8-56.07c56.49-24.22,151.29-43.51,282.05,1.96c82.85,28.81,151.67,87.17,218.19,143.58
				c71.87,60.92,138.47,117.37,215.6,133.58h0.04c34.6,7.26,71.34,6.39,111.62-5.87c38.58-11.69,80.44-33.81,126.77-69.27
				c153.32-117.22,297.84-228.99,440.07-269.79c91.5-26.29,185.55-22.6,277.84,21.62C2679.74,957.8,2706.81,974.38,2733.59,994.73z"
				/>
		</g>
		<g>
			<g>
				<rect x="620.68" y="1080.41" class="st9" width="22.8" height="98.46"/>
			</g>
			<g>
				<rect x="677.3" y="1040.41" class="st9" width="22.8" height="138.45"/>
			</g>
			<g>
				<rect x="733.91" y="1019.54" class="st9" width="22.8" height="159.32"/>
			</g>
			<g>
				<rect x="790.53" y="1010.85" class="st9" width="22.8" height="168.02"/>
			</g>
			<g>
				<linearGradient id="SVGID_8_" gradientUnits="userSpaceOnUse" x1="632.0799" y1="1264.0222" x2="632.0799" y2="1034.3221">
					<stop  offset="0" style="stop-color:#FF9F55"/>
					<stop  offset="1" style="stop-color:#FFD255"/>
				</linearGradient>
				<rect x="620.68" y="1117.1" class="st11" width="22.8" height="61.77"/>
			</g>
			<g>
				<linearGradient id="SVGID_9_" gradientUnits="userSpaceOnUse" x1="688.6973" y1="1264.0219" x2="688.6973" y2="1034.3223">
					<stop  offset="0" style="stop-color:#FF9F55"/>
					<stop  offset="1" style="stop-color:#FFD255"/>
				</linearGradient>
				<rect x="677.3" y="1092" class="st12" width="22.8" height="86.86"/>
			</g>
			<g>
				<linearGradient id="SVGID_10_" gradientUnits="userSpaceOnUse" x1="745.3145" y1="1264.0217" x2="745.3145" y2="1034.3226">
					<stop  offset="0" style="stop-color:#FF9F55"/>
					<stop  offset="1" style="stop-color:#FFD255"/>
				</linearGradient>
				<rect x="733.91" y="1078.91" class="st13" width="22.8" height="99.96"/>
			</g>
			<g>
				<linearGradient id="SVGID_11_" gradientUnits="userSpaceOnUse" x1="801.9322" y1="1264.0214" x2="801.9322" y2="1034.3232">
					<stop  offset="0" style="stop-color:#FF9F55"/>
					<stop  offset="1" style="stop-color:#FFD255"/>
				</linearGradient>
				<rect x="790.53" y="1073.46" class="st14" width="22.8" height="105.41"/>
			</g>
		</g>
		<g>
			<linearGradient id="SVGID_12_" gradientUnits="userSpaceOnUse" x1="1569.6382" y1="2025.1979" x2="1598.7524" y2="371.4736">
				<stop  offset="0" style="stop-color:#40D5E6"/>
				<stop  offset="1" style="stop-color:#01B5D2"/>
			</linearGradient>
			<path class="st15" d="M1229.56,1621.78h713.79c33.11,0,59.95-26.84,59.95-59.95v-983.1c0-33.11-26.84-59.95-59.95-59.95h-713.79
				c-33.11,0-59.95,26.84-59.95,59.95v983.1C1169.61,1594.94,1196.45,1621.78,1229.56,1621.78z"/>
		</g>
		<path class="st16" d="M1953.96,397.41H1259.2c-22.23,0-40.25,18.02-40.25,40.25v1137.51h735.02V397.41z"/>
		<linearGradient id="SVGID_13_" gradientUnits="userSpaceOnUse" x1="1668.7438" y1="631.6157" x2="1885.4684" y2="631.6157">
			<stop  offset="0" style="stop-color:#40D5E6"/>
			<stop  offset="1" style="stop-color:#01B5D2"/>
		</linearGradient>
		<rect x="1668.74" y="617.91" class="st17" width="216.72" height="27.41"/>
		<linearGradient id="SVGID_14_" gradientUnits="userSpaceOnUse" x1="1668.7438" y1="746.5209" x2="1867.6852" y2="746.5209">
			<stop  offset="0" style="stop-color:#40D5E6"/>
			<stop  offset="1" style="stop-color:#01B5D2"/>
			<stop  offset="1" style="stop-color:#5577FF"/>
		</linearGradient>
		<rect x="1668.74" y="732.82" class="st18" width="198.94" height="27.41"/>
		<linearGradient id="SVGID_15_" gradientUnits="userSpaceOnUse" x1="1668.7438" y1="689.0684" x2="1840.8727" y2="689.0684">
			<stop  offset="0" style="stop-color:#40D5E6"/>
			<stop  offset="1" style="stop-color:#01B5D2"/>
		</linearGradient>
		<rect x="1668.74" y="675.36" class="st19" width="172.13" height="27.41"/>
		<g>
			<linearGradient id="SVGID_16_" gradientUnits="userSpaceOnUse" x1="1436.2144" y1="855.567" x2="1436.2144" y2="617.5724">
				<stop  offset="0" style="stop-color:#7DB3E0"/>
				<stop  offset="1" style="stop-color:#FFFFFF"/>
			</linearGradient>
			<path class="st20" d="M1436.21,793.7c-24.62,0-48.36-5.12-70.55-15.21c-60.84-27.65-100.15-88.68-100.15-155.49
				c0-94.13,76.58-170.71,170.71-170.71c94.13,0,170.71,76.58,170.71,170.71c0,66.81-39.31,127.84-100.16,155.49
				C1484.57,788.58,1460.83,793.7,1436.21,793.7z M1436.21,461.3c-89.16,0-161.7,72.54-161.7,161.7
				c0,63.28,37.24,121.09,94.87,147.29c21.02,9.56,43.5,14.41,66.82,14.41c23.32,0,45.8-4.85,66.82-14.41
				c57.63-26.19,94.87-84.01,94.87-147.29C1597.91,533.83,1525.37,461.3,1436.21,461.3z"/>
		</g>
		<g>
			<g>
				<rect x="1265.51" y="862.41" class="st9" width="249.02" height="24.44"/>
			</g>
			<g>
				<rect x="1265.51" y="928.17" class="st9" width="249.02" height="24.44"/>
			</g>
			<g>
				<rect x="1265.51" y="993.93" class="st9" width="249.02" height="24.44"/>
			</g>
		</g>
		<g>
			<g>
				<rect x="1565.35" y="862.41" class="st21" width="41.57" height="24.44"/>
			</g>
			<g>
				<rect x="1565.35" y="928.17" class="st21" width="41.57" height="24.44"/>
			</g>
			<g>
				<rect x="1565.35" y="993.93" class="st21" width="41.57" height="24.44"/>
			</g>
		</g>
		<g>
			<radialGradient id="SVGID_17_" cx="1814.5558" cy="1156.7814" r="659.0681" gradientUnits="userSpaceOnUse">
				<stop  offset="0.1602" style="stop-color:#90C2E8"/>
				<stop  offset="0.5806" style="stop-color:#01B5D2"/>
				<stop  offset="1" style="stop-color:#01B5D2"/>
			</radialGradient>
			<path class="st22" d="M2733.59,1268.54v33.88c-35.73,7.33-68.86,9.66-104.47,9.66c-140.46,0-263.47-57.65-390.28-120.49
				c-6.81-3.38-13.65-6.77-20.5-10.19c-165.58-82.36-336.8-167.5-564.93-144.18c-145.69,14.89-237.11,74.24-317.78,126.55
				c-73.07,47.42-142.12,89.09-235.64,92.63c-151.14,5.75-203.6-58.7-204.47-62.65v-41.37c0.19,0.71,32.83,72.24,201.42,72.24h2.9
				c84.28-0.45,146.44-40.8,218.46-87.51c83.71-54.3,178.56-115.83,331.88-131.51c237.26-24.26,412.66,62.95,582.3,147.34
				c16.96,8.42,33.85,16.81,50.73,25.01C2426,1247.44,2566.77,1304,2733.59,1268.54z"/>
		</g>
		<path class="st16" d="M2089.04,1593.29h-348.07c-41.27,0-74.73-33.46-74.73-74.73V912.52c0-41.27,33.46-74.73,74.73-74.73h348.07
			c41.27,0,74.73,33.46,74.73,74.73v606.04C2163.77,1559.84,2130.31,1593.29,2089.04,1593.29z"/>
		<g>
			<g>
				<path class="st9" d="M2105.6,950.16c-12.19-34.09-44.78-55.03-79.12-54c-8.31,0.25-16.73,1.79-24.99,4.74
					c-25.01,8.95-42.95,28.87-50.32,52.41c-5.11,16.31-5.14,34.36,1.06,51.7c0.62,1.72,1.29,3.42,2.01,5.08
					c3.26,7.51,7.54,14.3,12.63,20.27c21.31,25.05,56.67,35.64,89.48,23.91C2098.7,1039.13,2120.75,992.52,2105.6,950.16z
					 M2049.48,1035.08c-24.6,8.8-51.11,0.86-67.09-17.92c-3.81-4.48-7.02-9.57-9.46-15.2c-0.54-1.24-1.04-2.51-1.51-3.81
					c-4.65-13-4.62-26.53-0.79-38.76c5.52-17.65,18.97-32.59,37.73-39.29c6.19-2.21,12.5-3.37,18.74-3.56
					c25.74-0.78,50.18,14.92,59.32,40.49C2097.77,988.78,2081.24,1023.72,2049.48,1035.08z"/>
			</g>
			<g>
				<path class="st23" d="M1970.64,959.39l-19.46-6.08c7.37-23.54,25.31-43.46,50.32-52.41c8.26-2.95,16.68-4.49,24.99-4.74
					l0.61,20.38c-6.23,0.19-12.54,1.34-18.74,3.56C1989.61,926.8,1976.16,941.74,1970.64,959.39z"/>
			</g>
			<g>
				<path class="st24" d="M1972.94,1001.96l-18.69,8.14c-0.72-1.66-1.39-3.35-2.01-5.08c-6.2-17.34-6.17-35.39-1.06-51.7l19.46,6.08
					c-3.83,12.23-3.85,25.76,0.79,38.76C1971.89,999.44,1972.4,1000.71,1972.94,1001.96z"/>
			</g>
			<g>
				<path class="st25" d="M1966.87,1030.36c-5.08-5.97-9.36-12.76-12.63-20.27l18.69-8.14c2.44,5.63,5.65,10.73,9.46,15.2
					L1966.87,1030.36z"/>
			</g>
		</g>
		<g>
			<rect x="1984.3" y="1422.74" class="st25" width="43.9" height="143.94"/>
		</g>
		<g>
			<rect x="1919.04" y="1463.11" class="st25" width="43.9" height="103.57"/>
		</g>
		<g>
			<rect x="2047.61" y="1356.02" class="st25" width="43.9" height="210.65"/>
		</g>
		<g>
			<polygon class="st25" points="1732.71,1407.9 1728.9,1404.97 1800.43,1311.89 1888.72,1316.68 1955.3,1210.66 2027.02,1203.26 
				2070.12,1118.01 2074.41,1120.19 2030.13,1207.78 1958.13,1215.21 1891.29,1321.64 1802.7,1316.83 			"/>
		</g>
		<path class="st21" d="M1868.01,945.05h-124.84c-7.88,0-14.27-6.39-14.27-14.27l0,0c0-7.88,6.39-14.27,14.27-14.27h124.84
			c7.88,0,14.27,6.39,14.27,14.27l0,0C1882.28,938.66,1875.89,945.05,1868.01,945.05z"/>
		<path class="st9" d="M1868.01,994.84h-124.84c-7.88,0-14.27-6.39-14.27-14.27l0,0c0-7.88,6.39-14.27,14.27-14.27h124.84
			c7.88,0,14.27,6.39,14.27,14.27l0,0C1882.28,988.46,1875.89,994.84,1868.01,994.84z"/>
		<path class="st9" d="M1868.01,1044.63h-124.84c-7.88,0-14.27-6.39-14.27-14.27l0,0c0-7.88,6.39-14.27,14.27-14.27h124.84
			c7.88,0,14.27,6.39,14.27,14.27l0,0C1882.28,1038.25,1875.89,1044.63,1868.01,1044.63z"/>
		<linearGradient id="SVGID_18_" gradientUnits="userSpaceOnUse" x1="744.921" y1="1479.0229" x2="736.1864" y2="1128.1919">
			<stop  offset="0" style="stop-color:#FF9F55"/>
			<stop  offset="1" style="stop-color:#FFD255"/>
		</linearGradient>
		<polygon class="st26" points="723.72,1343.98 773.98,1343.98 758.6,1312.07 708.34,1312.07 		"/>
		<linearGradient id="SVGID_19_" gradientUnits="userSpaceOnUse" x1="702.2892" y1="1480.0844" x2="693.5545" y2="1129.2511">
			<stop  offset="0" style="stop-color:#FF9F55"/>
			<stop  offset="1" style="stop-color:#FFD255"/>
		</linearGradient>
		<polygon class="st27" points="700.21,1343.98 712.18,1343.98 696.8,1312.07 684.82,1312.07 		"/>
		<linearGradient id="SVGID_20_" gradientUnits="userSpaceOnUse" x1="1664.1775" y1="168.271" x2="1585.5688" y2="462.3263">
			<stop  offset="0" style="stop-color:#FF9F55"/>
			<stop  offset="1" style="stop-color:#FFD255"/>
		</linearGradient>
		<polygon class="st28" points="1576.81,318.01 1676.31,318.01 1676.31,299.99 1576.81,299.99 		"/>
		<linearGradient id="SVGID_21_" gradientUnits="userSpaceOnUse" x1="1660.2544" y1="167.2183" x2="1581.6432" y2="461.2831">
			<stop  offset="0" style="stop-color:#FF9F55"/>
			<stop  offset="1" style="stop-color:#FFD255"/>
		</linearGradient>
		<polygon class="st29" points="1576.81,294.97 1676.31,294.97 1676.31,291.57 1576.81,291.57 		"/>
		<g>
			<linearGradient id="SVGID_22_" gradientUnits="userSpaceOnUse" x1="1428.3158" y1="502.0813" x2="1447.2404" y2="791.7745">
				<stop  offset="0" style="stop-color:#40D5E6"/>
				<stop  offset="1" style="stop-color:#5577FF"/>
			</linearGradient>
			<rect x="1413.97" y="529.46" class="st30" width="44.49" height="187.07"/>
			<linearGradient id="SVGID_23_" gradientUnits="userSpaceOnUse" x1="1428.3158" y1="502.0823" x2="1447.2401" y2="791.7717">
				<stop  offset="0" style="stop-color:#40D5E6"/>
				<stop  offset="1" style="stop-color:#5577FF"/>
			</linearGradient>
			<polygon class="st31" points="1342.68,645.23 1342.68,600.75 1529.75,600.75 1529.75,645.23 			"/>
		</g>
		<g>
			<g>
				<g>
					<path class="st9" d="M785.02,707.04c-42.66-20.18-91.99-9.45-122.68,23.15c-7.43,7.89-13.77,17.07-18.66,27.4
						c-14.81,31.3-12.98,66.19,1.93,94.68c10.33,19.74,26.93,36.41,48.63,46.67c2.16,1.02,4.34,1.97,6.53,2.83
						c9.93,3.91,20.13,6.23,30.32,7.05c42.73,3.45,85.08-19.38,104.5-60.43C860.64,795.39,838.01,732.11,785.02,707.04z
						 M811.56,837.02c-14.56,30.78-46.31,47.89-78.35,45.31c-7.64-0.62-15.29-2.35-22.73-5.29c-1.64-0.65-3.28-1.36-4.9-2.12
						c-16.26-7.7-28.71-20.19-36.45-34.99c-11.18-21.36-12.55-47.52-1.45-70.98c3.66-7.75,8.42-14.63,13.99-20.54
						c23.01-24.44,60-32.49,91.98-17.36C813.39,749.85,830.35,797.29,811.56,837.02z"/>
				</g>
			</g>
			<g>
				<g>
					<path class="st32" d="M669.13,839.93l-23.53,12.33c-14.9-28.49-16.73-63.38-1.93-94.68c4.89-10.33,11.23-19.51,18.66-27.4
						l19.34,18.22c-5.57,5.92-10.32,12.8-13.99,20.54C656.58,792.41,657.95,818.57,669.13,839.93z"/>
				</g>
			</g>
			<g>
				<g>
					<path class="st33" d="M710.48,877.04l-9.73,24.72c-2.19-0.86-4.37-1.81-6.53-2.83c-21.69-10.26-38.3-26.93-48.63-46.67
						l23.53-12.33c7.74,14.8,20.19,27.29,36.45,34.99C707.2,875.69,708.84,876.39,710.48,877.04z"/>
				</g>
			</g>
			<g>
				<g>
					<path class="st33" d="M731.07,908.81c-10.19-0.82-20.39-3.13-30.32-7.05l9.73-24.72c7.44,2.94,15.1,4.67,22.73,5.29
						L731.07,908.81z"/>
				</g>
			</g>
		</g>
		<g>
			<polygon class="st33" points="707.01,978.78 508.8,978.78 508.8,974.84 703.07,974.84 703.07,890.87 707.01,890.87 			"/>
		</g>
		<g>
			<rect x="508.8" y="933.83" class="st9" width="104.33" height="23.64"/>
		</g>
		<g>
			<g>
				<rect x="1090.38" y="1321.61" class="st34" width="162.01" height="9.62"/>
			</g>
			<g>
				
					<rect x="1112.1" y="1356.26" transform="matrix(-1 -1.224647e-16 1.224647e-16 -1 2238.3877 3149.873)" class="st35" width="14.2" height="437.36"/>
			</g>
			<g>
				<rect x="1227.04" y="1318.89" class="st36" width="112.61" height="13.73"/>
			</g>
			<g>
				<rect x="1262.02" y="1201.71" class="st37" width="42.64" height="129.52"/>
			</g>
			<g>
				<rect x="1032.27" y="1331.39" class="st38" width="623.93" height="24.87"/>
			</g>
			<g>
				<path class="st16" d="M912.52,1180.87c0,0-6.82,95.7,11.87,107.15c11.71,7.17,58.42,31.37,57.03,35.91
					c-1.39,4.54-26.37,40.38-26.37,40.38s-89.71-59.08-92.6-77.69c-2.83-18.19,4.42-140.12,16.74-145.74
					c9.24-4.21,14.11-0.73,25.75,7.91C921.29,1160.93,912.52,1180.87,912.52,1180.87z"/>
			</g>
			<g>
				<g>
					<g>
						<path class="st39" d="M1022.9,1733.9c0,0-2.79,19.36-3.14,22.27c-0.35,2.91-31.03-1.71-31.03-1.71l-2.48-23.05
							C986.24,1731.41,1019.06,1731.17,1022.9,1733.9z"/>
					</g>
				</g>
			</g>
			<g>
				<g>
					<g>
						<path class="st40" d="M1020.08,1753.71c0,0,9.72,11.67,19.12,16.75c9.4,5.09,24.18,7.1,29.74,12.36
							c4.01,3.8,14.62,20.16-24.43,19.83c-39.05-0.33-57.88,2.31-62.07-3.96c-4.18-6.27,6.05-46.3,6.05-46.3
							S997.75,1755.73,1020.08,1753.71z"/>
					</g>
				</g>
			</g>
			<g>
				<g>
					<g>
						<path class="st39" d="M1219.48,1734.08c0,0-2.79,19.36-3.14,22.27c-0.35,2.91-31.03-1.71-31.03-1.71l-2.48-23.05
							C1182.83,1731.59,1215.65,1731.35,1219.48,1734.08z"/>
					</g>
				</g>
			</g>
			<g>
				<g>
					<g>
						<path class="st40" d="M1216.67,1753.89c0,0,9.72,11.67,19.13,16.75c9.4,5.09,44,9.26,49.56,14.53
							c4.01,3.8,10.69,19.1-44.26,17.67c-39.04-1.02-57.88,2.31-62.07-3.96c-4.18-6.27,6.05-46.3,6.05-46.3
							S1193.81,1756.14,1216.67,1753.89z"/>
					</g>
				</g>
			</g>
			<g>
				<g>
					<g>
						<path class="st40" d="M923.93,1399.42c0,0,111.55,18.88,136.75,22.83c25.2,3.96,161.81,37.95,178.9,48.31
							c13.6,8.25-7.13,206.28-11.98,281.83h-53.81l-3.9-226.64c-64.57,1.61-110.65-15.11-157.67-7.96
							c-47.02,7.14-86.22,17.29-116.1-22.79C896.11,1495.01,895.01,1408.18,923.93,1399.42z"/>
					</g>
				</g>
			</g>
			<g>
				<g>
					<g>
						<path class="st40" d="M1033.88,1752.58l-52.44-3.24l-5.11-223.58c-27.8,0.69-37.33-1.07-59.82-3.8l-42.34-98.41
							c37.11,7.42,155.99,37.4,171.84,47.02C1059.61,1478.81,1038.73,1677.02,1033.88,1752.58z"/>
					</g>
				</g>
			</g>
			<g>
				<g>
					<g>
						<path class="st41" d="M975.28,981.27c0,0,40.89-11.3,56.5,20.44c15.6,31.75,8.53,91.93-12.08,97.59
							c-20.61,5.66-50.25-0.86-58.8-20.62c-8.56-19.76-15.38-47.84-13.33-66.02C949.61,994.49,964.42,985.62,975.28,981.27z"/>
					</g>
				</g>
			</g>
			<g>
				<g>
					<g>
						<path class="st41" d="M1009.01,1092.97c0,0-0.45,24.14,2.21,29.29c2.66,5.15-56.94,3.86-56.94,3.86s9.39-28.99,4.06-53.69
							C953.07,1047.98,1009.01,1092.97,1009.01,1092.97z"/>
					</g>
				</g>
			</g>
			<g>
				<g>
					<g>
						<path class="st42" d="M955.13,1063.28c0,0,3.19,6.48,18.61,5.43c15.43-1.05,35.78-19.66,42.33-21.32
							c6.55-1.66,6.94-5.39,6.94-5.39l3.47,6.16l6.71,1.02c0,0-4.56-18.65,5.38-25.22c9.94-6.57-4.47-59.47-54.78-46.71
							c0,0-38.4,7.03-38.91,28.47S947.68,1051.93,955.13,1063.28z"/>
					</g>
				</g>
			</g>
			<g>
				<g>
					<g>
						<path class="st34" d="M1014.36,1121.64c0,0-0.17-9.83-4.62-10.78c-4.46-0.94-46.85-6.77-52.33-4.62l-2.35,12.98
							C955.06,1119.23,965.6,1125.71,1014.36,1121.64z"/>
					</g>
				</g>
			</g>
			<g>
				<g>
					<g>
						<path class="st41" d="M1026.62,1037.61c-1.14-8.06-10.31-17.32-15.56-4.76c-5.25,12.55,3.54,30.84,9.43,29.86
							C1026.39,1061.72,1028.18,1048.54,1026.62,1037.61z"/>
					</g>
				</g>
			</g>
			<g>
				<g>
					<g>
						<path class="st43" d="M1191.93,1237.83c-0.02-0.01-0.04-0.01-0.07-0.01C1192.17,1237.96,1192.21,1237.97,1191.93,1237.83z"/>
					</g>
				</g>
			</g>
			<g>
				<g>
					<g>
						<path class="st42" d="M963.35,987.03c0,0-49.86-2.35-8.7,75.49L963.35,987.03z"/>
					</g>
				</g>
			</g>
			<g>
				<g>
					<polygon class="st44" points="852.26,1779.1 855.97,1789.54 1012.69,1740.98 1005.18,1719.85 					"/>
				</g>
			</g>
			<g>
				<g>
					<rect x="1000.25" y="1563.16" class="st44" width="17.81" height="170.39"/>
				</g>
			</g>
			<g>
				<g>
					<rect x="956.63" y="1554.1" class="st45" width="105.06" height="10.04"/>
				</g>
			</g>
			<g>
				<g>
					<polygon class="st44" points="1167.43,1779.1 1163.72,1789.54 1007,1740.98 1013.89,1718.52 					"/>
				</g>
			</g>
			<g>
				<g>
					<polygon class="st44" points="1057.01,1788.42 1057.01,1800.56 1007,1740.98 1013.89,1718.52 					"/>
				</g>
			</g>
			<g>
				<g>
					<circle class="st46" cx="1167.43" cy="1793.62" r="14.65"/>
				</g>
			</g>
			<g>
				<g>
					<circle class="st46" cx="1043.61" cy="1793.62" r="14.65"/>
				</g>
			</g>
			<g>
				<g>
					<circle class="st46" cx="852.26" cy="1793.62" r="14.65"/>
				</g>
			</g>
			<g>
				<path class="st34" d="M1117.16,1554.1H902.53c-9.46,0-17.14-7.67-17.14-17.14v-3.76c0-9.46,7.67-17.13,17.14-17.13h214.63
					c9.46,0,17.13,7.67,17.13,17.13v3.76C1134.29,1546.43,1126.62,1554.1,1117.16,1554.1z"/>
			</g>
			<g>
				<rect x="1562.18" y="1356.26" class="st35" width="14.2" height="437.36"/>
			</g>
			<g>
				<path class="st47" d="M1450.36,1264.1h-334.03c-9.44,0-17.09-7.65-17.09-17.09v-225.57c0-9.44,7.65-17.09,17.09-17.09h334.03
					c9.44,0,17.09,7.65,17.09,17.09V1247C1467.45,1256.45,1459.8,1264.1,1450.36,1264.1z"/>
			</g>
			<g>
				<rect x="1113.65" y="1018.38" class="st48" width="339.38" height="205.01"/>
			</g>
			<g>
				<path class="st49" d="M1437.95,1242.73c0,5.83-6.12,10.55-13.68,10.55s-13.68-4.73-13.68-10.55c0-5.83,6.12-10.55,13.68-10.55
					S1437.95,1236.9,1437.95,1242.73z"/>
			</g>
			<g>
				<path class="st37" d="M1359.57,1331.72v-4.62c0,0-6.5-28.75-52.47-28.75c-45.97,0-45.04,33.37-45.04,33.37H1359.57z"/>
			</g>
			<g>
				<g>
					<path class="st41" d="M1261.51,1302.62c0,0,9.99-0.78,13.64-2.98c3.66-2.21,25.55-16.93,30.69-14.57
						c5.14,2.36,39.36,12.84,38.17,17.84c-1.19,5-4.35,4.52-6.77,3.64c-2.41-0.89-27.26-6.1-29.45-5.22c0,0,24.41,8.9,24.5,15.4
						c0.1,6.49-5.11,8.08-7.42,10.54c-2.31,2.46-5.09,8.56-11.38,9.02c-6.29,0.47-36.98-10.21-43.29-10.7
						c-6.32-0.49-18.01,0.39-18.8-0.64C1250.6,1323.92,1261.51,1302.62,1261.51,1302.62z"/>
				</g>
			</g>
			<g>
				<g>
					<g>
						<path class="st50" d="M1079.71,1135.27c-31.84-5.6-65.35-13.63-65.35-13.63l-59.3-2.42c0,0-54.42,11.98-75.86,21.66
							c-2.03,0.92-2.04,48.55-7.62,61.04l17.77,37.49c0,0,10.27,74.26,12.39,107.29c0.98,15.16-2.76,146.53-2.76,146.53
							s5.33,2.63,45.8,7.09c40.47,4.46,141.59-1.61,142.23-6.39c0.64-4.78-19.58-177.99-20.48-186.96
							c-1.37-13.77,3.98-77.38,3.98-77.38c7.63,10.24,27.06,56.5,47.33,78.5c11.92,12.95,70.94,20.88,82.06,21.25
							c24.21,0.81,68.39,5.63,69.68,3.27c1.03-1.42,3.85-39.21,1.08-40.13c-2.42-0.81-84.45-5.53-105.47-16.68
							c-7.69-4.08-30.67-54.2-30.67-54.2S1097.27,1143.16,1079.71,1135.27z"/>
					</g>
				</g>
			</g>
			<g>
				<path class="st34" d="M965.99,1489.44H860.15c-18.17,0-32.9-14.73-32.9-32.9v-171.92c0-18.17,14.73-32.9,32.9-32.9h105.84
					c18.17,0,32.9,14.73,32.9,32.9v171.92C998.9,1474.71,984.17,1489.44,965.99,1489.44z"/>
			</g>
			<g>
				<path class="st34" d="M968.48,1544.64c-25.3,0-45.83-8.5-61.01-25.26c-34.31-37.88-28.15-104.48-27.87-107.29
					c0.52-5.25,5.21-9.08,10.45-8.56c5.25,0.52,9.08,5.19,8.56,10.44c-0.07,0.76-5.54,61.12,23.05,92.63
					c11.57,12.75,26.88,18.94,46.82,18.94c5.27,0,9.55,4.28,9.55,9.55S973.75,1544.64,968.48,1544.64z"/>
			</g>
			<g>
				<g>
					<g>
						<path class="st51" d="M1234.67,1045.54h-94.51c-1.35,0-2.45-1.1-2.45-2.45v-5.93c0-1.35,1.1-2.45,2.45-2.45h94.51
							c1.35,0,2.45,1.1,2.45,2.45v5.93C1237.13,1044.44,1236.03,1045.54,1234.67,1045.54z"/>
					</g>
				</g>
			</g>
			<g>
				<g>
					<g>
						<path class="st51" d="M1234.67,1068.77h-94.51c-1.35,0-2.45-1.1-2.45-2.45v-5.93c0-1.35,1.1-2.45,2.45-2.45h94.51
							c1.35,0,2.45,1.1,2.45,2.45v5.93C1237.13,1067.67,1236.03,1068.77,1234.67,1068.77z"/>
					</g>
				</g>
			</g>
			<g>
				<g>
					<g>
						<path class="st51" d="M1228.89,1207.06h-82.93c-4.55,0-8.24-3.69-8.24-8.24v-106c0-4.55,3.69-8.24,8.24-8.24h82.93
							c4.55,0,8.24,3.69,8.24,8.24v106C1237.13,1203.37,1233.44,1207.06,1228.89,1207.06z"/>
					</g>
				</g>
			</g>
			<g>
				<g>
					<g>
						<path class="st51" d="M1421.19,1207.06h-150.95c-7.2,0-13.04-5.84-13.04-13.04v-146.27c0-7.2,5.84-13.04,13.04-13.04h150.95
							c7.2,0,13.04,5.84,13.04,13.04v146.27C1434.23,1201.22,1428.39,1207.06,1421.19,1207.06z"/>
					</g>
				</g>
			</g>
		</g>
		<g>
			<g>
				<g>
					<path class="st52" d="M1869.12,1137.54c0,0,6.6-14.28,7.68-16.43c1.08-2.15,7.39-5.56,14.89-7.45
						c7.28-1.83,17.19-5.51,18.32-4.81c1.13,0.71,2.46,0.81,3.8,3.95c1.35,3.15,0.76,6.55,0.76,6.55s3.48,3.1,2.44,7.23
						c0,0,3.14,3.06,1.19,7.57c0,0,2.99,3.07,1.29,6.22c0,0-5.85,3.32-7.66,5.17c-1.81,1.85-14.45,7.92-27.46,11.88
						C1884.37,1157.43,1870.81,1157,1869.12,1137.54z"/>
				</g>
			</g>
			<g>
				<g>
					<path class="st52" d="M1884.37,1157.43c0,0-16.15,2.82-21.62-0.33c-5.47-3.15,0.9-19.6,0.9-19.6l10.22-6.18L1884.37,1157.43z"
						/>
				</g>
			</g>
			<g>
				<g>
					<path class="st53" d="M1890.36,1130.62c0,0-0.25,7.9-1.44,10.08c-1.19,2.18,14.89,5.58,14.89,5.58
						S1899.96,1131.18,1890.36,1130.62z"/>
				</g>
			</g>
			<g>
				<g>
					<path class="st54" d="M1907.98,1109.54c0,0-17.63,8.57-16.61,11.58c1.03,3.01,3.23,3.49,3.23,3.49l-5.66,6.82
						c0,0-1.2,6.63,6.37,6c0,0-1.76,6.08,5.48,4.59c0,0,0.63,4.53,4.1,4.43c3.47-0.09,14.59-6.08,14.59-6.08s2.01-2.42-1.06-6.33
						c0,0,2.18-4.22-1.13-7.59c0,0,1.01-5.45-2.6-9.05c0,0,0.37-6.07-4.84-8.65C1909.86,1108.76,1908.72,1109.17,1907.98,1109.54z"
						/>
				</g>
			</g>
			<g>
				<g>
					<path class="st52" d="M1877.32,1120.78c0,0,13.45,0.29,20.73,3.67c1.65,0.77,3.1,1.81,3.01,3.62
						c-0.09,1.82-2.83,3.99-8.67,4.17c-5.83,0.17-13.29,3.07-13.29,3.07S1873.05,1133.73,1877.32,1120.78z"/>
				</g>
			</g>
			<g>
				<path class="st52" d="M1914.69,1117.41c0,0-20.13,6.89-21.5,8.55c-1.37,1.66-3.96-5.68-2.69-7.02
					c1.27-1.34,16.94-9.7,18.67-10.16C1910.9,1108.32,1916.82,1112.36,1914.69,1117.41z"/>
			</g>
			<g>
				<path class="st52" d="M1905.42,1109.62c0,0,31.35-6.42,31.99-2.6c0.64,3.82-2.4,4.46-28.09,11.96
					C1884.35,1126.26,1905.42,1109.62,1905.42,1109.62z"/>
			</g>
			<g>
				<path class="st55" d="M1690,1752.58c0,0,9.99,14.95,24,18.18c14.01,3.23,27.82,8.37,27.92,17.21
					c0.11,8.84-40.52,14.12-56.55,5.2c-23.93-13.31-26.37-9.29-29.02-15.95c-2.65-6.65,3.19-24.44,3.01-26.55
					C1659.15,1748.05,1690,1752.58,1690,1752.58z"/>
			</g>
			<g>
				<path class="st56" d="M1688.45,1745.2c0,0,1.82,7.22,1.55,7.37c-0.27,0.15-31.58,3.88-30.63-1.91c0.77-4.7,1.86-9.81,1.86-9.81
					L1688.45,1745.2z"/>
			</g>
			<g>
				<path class="st55" d="M1584.63,1751.58c0,0,7.13,14.3,19.3,19.17c13.01,5.21,23.45,11.19,23.21,19.81
					c-0.24,8.62-31.82,17.35-54.79,0.81c-14.51-10.45-19.12-10.5-21.44-17.08c-2.33-6.58,4.04-23.68,3.96-25.75
					C1554.77,1745.99,1584.63,1751.58,1584.63,1751.58z"/>
			</g>
			<g>
				<path class="st56" d="M1584.99,1744.16c0,0-0.09,7.29-0.36,7.43c-0.27,0.14-30.53,2.63-29.76-3.04c0.61-4.5,2.94-9.94,2.94-9.94
					L1584.99,1744.16z"/>
			</g>
			<g>
				<path class="st57" d="M1695.94,1307.39c0,0,28.11,124,34.53,161.78c5.47,32.15,9.82,65.63,7.2,88.83
					c-3.24,28.73-43.92,177.65-42.22,186.07c1.7,8.42-48.49,3.3-48.49,3.3s36.86-168.06,30.68-198.98
					c-4.58-22.9-44.68-175-50.82-167.2c-6.15,7.8-13.77,143.55-18.32,166.09c-4.55,22.53-18.52,200.59-18.52,200.59
					s-31.24,4.61-39.58-2.45c0,0-3.8-152.04-0.9-194.29c1.11-16.1-18.87-193.05,6.74-264.29
					C1569.78,1249.2,1695.94,1307.39,1695.94,1307.39z"/>
			</g>
			<g>
				<path class="st50" d="M1879.53,1163.54c0,0-97.39,21.59-116.77,16.83c-8.96-2.2-20.76-14.57-31.97-29.11
					c-3.7-4.79-7.32-9.81-10.77-14.79c-0.01-0.01-0.01-0.02-0.01-0.02c-13.76-19.86-24.54-38.9-24.54-38.9s-40.66-47.65-8.03-68.9
					c0,0,11.84-4.44,22.72,7.22c10.88,11.66,23.65,36.04,26.51,42.26c2.85,6.21,42.79,63.82,44.86,65.12
					c2.07,1.3,19.52-3.29,33.52-4.46c22.82-1.9,57.01-10.79,57.01-10.79L1879.53,1163.54z"/>
			</g>
			<path class="st58" d="M1656.92,1018.02c0,0,41.86,8.66,46.83,13.05c5.39,4.68,14.9,50.53,15.47,63.3
				c0.57,12.77-5.05,66.12-10.44,85.99c-5.39,19.87-4.4,117.72-1,145.25c0,0-84.29,23.94-167.16,13.15
				c0,0,13.89-102.95,10.58-130.17c-4.25-34.88-14.47-115.23-14.47-115.23s7.34-55.97,14.72-62.21
				c7.38-6.24,58.22-13.14,58.22-13.14H1656.92z"/>
			<path class="st52" d="M1639.61,888.58c0,0,50.35-18.63,47.21,48.28c-3.15,66.92-14.95,73.72-48.07,64.37
				c-33.13-9.35-35.9-51.58-40.21-71.9C1594.22,909.02,1623.14,891.5,1639.61,888.58z"/>
			<path class="st52" d="M1663.5,1027.08c0,0-10.36,6.85-49.66-10.46c0,0,1.11-26.94-6.6-52.1c-7.71-25.16,52.73,33.55,52.73,33.55
				c-0.63,0.45-0.75,2.96-0.39,6.47c0.31,2.97,0.96,6.66,1.94,10.4C1663.73,1023.35,1663.5,1019.73,1663.5,1027.08z"/>
			<path class="st57" d="M1605.53,962.53c0,0-0.14-17.88,7.29-19.52c7.43-1.65,8.42-7.59,8.42-7.59l4.26,0.99
				c0,0-0.78-3.15,6.31-7.3c7.09-4.15,49.48-0.5,54.8-6.6c5.32-6.1-2.4-42.32-13.96-45.88c-11.57-3.56-38.44-3.23-62.98,3.67
				c0,0-18.64,4.7-20.05,26.64C1588.7,921.13,1599.48,952.83,1605.53,962.53z"/>
			<path class="st59" d="M1661.52,1014.94c-39.03-6.56-44.86-28.76-44.95-29.1c15.17,19.57,43.01,18.71,43.01,18.71
				C1659.89,1007.51,1660.54,1011.2,1661.52,1014.94z"/>
			<path class="st60" d="M1659.8,1035.86c0,0,7.11,10.49,11.4,37.4c4.29,26.91,3.56,73.28,3.56,73.28l-9.88,1.2
				c0,0-14.96-94.56-12.38-111.04L1659.8,1035.86z"/>
			<path class="st52" d="M1621.23,935.41c-2.22-5.9-14.78-5.15-13.5,4.19c1.29,9.35,11.67,23.75,15.83,21.05
				C1627.74,957.96,1624.3,943.55,1621.23,935.41z"/>
			<path class="st50" d="M1704.28,1031.03c0,0,23.79,31.47,14.97,113.8c-15.92,148.78,25.78,387.61,25.78,387.61l-43.02,13.46
				c0,0-41.11-305.31-30.64-416.12c4.77-50.49,18.93-67.29-3.41-109.36C1667.96,1020.42,1689.72,1021.53,1704.28,1031.03z"/>
			<path class="st50" d="M1598.1,1019.73c0,0,68.09,68.78,73.42,120.92c5.33,52.14,14.02,405.25,14.02,405.25l-162.1-9.44
				c0,0,14.9-186.4,18.53-209.72c3.64-23.32,11.16-157.2-5.25-219.33c-8.81-33.38,1.67-75.72,21.81-80.34
				C1578.67,1022.45,1598.1,1019.73,1598.1,1019.73z"/>
			<path class="st50" d="M1575.09,1028.64c0,0,26.22,7.22,11.79,55.35c-11.3,37.7-12.83,45.79-12.83,45.79l-60.51-15.11
				c0,0,17.74-82.81,46.69-87.26C1560.24,1027.42,1569.46,1026.1,1575.09,1028.64z"/>
			<polygon class="st61" points="1807.66,1269.72 1702.32,1378.73 1632.36,1311.12 1734.96,1199.47 			"/>
			<polygon class="st62" points="1781.01,1251.91 1788.4,1244.26 1756.66,1213.59 1748.03,1220.04 			"/>
			<path class="st63" d="M1613.86,1009.17c0,0,20.54,12.39,40.86,15.18l-10.81,17.25l-34.25-23.58L1613.86,1009.17z"/>
			<path class="st63" d="M1661.52,1014.94c0,0-2.16,7.1-6.8,9.42l10.15,14.16l-0.37-18.78L1661.52,1014.94z"/>
			<path class="st60" d="M1654.73,1024.35l8.04,11.21c0,0-5.09,6.43-16.05,1.56L1654.73,1024.35z"/>
			<path class="st63" d="M1730.79,1151.24v0.01c-3.7-4.79-7.32-9.81-10.77-14.79c-0.01-0.01-0.01-0.02-0.01-0.02
				s1.3-36.28,0.16-46.7C1720.17,1089.75,1732.03,1128.83,1730.79,1151.24z"/>
			<path class="st63" d="M1563.7,1127.2c0,0-7.91,51.45-7.35,54.75C1556.9,1185.25,1520.56,1171.61,1563.7,1127.2z"/>
			<rect x="1687.39" y="1108.79" class="st64" width="19.11" height="29.17"/>
			<path class="st52" d="M1621.56,1248.66c0,0,1.75,3.46,4.66,4.63c5.02,2.02,13.05-1.18,16.15,6c3.11,7.18-16.92,24.05-21.94,24.93
				c-5.02,0.88-12.13-7.34-16.76-23.18C1599.03,1245.2,1621.56,1248.66,1621.56,1248.66z"/>
			<path class="st52" d="M1640.97,1257.04c0,0,8.62,7.71,17.14,17.5c7.48,8.6,14.67,20.14,13.38,22.32
				c-2.86,4.84-9.81-5.97-17.81-13.97c-7.36-7.37-6.14-6.08-6.14-6.08s-0.01-0.79,6.41,8.87c6.91,10.38,12.93,21.77,11.29,24.3
				c-0.79,1.23-4.01,4.24-5.55-0.72c1.38,2.32,1.62,1.75,0.7,2.46c-4.78,3.64-17.33-9.94-22.32-15.33c3.8,4.17,6.14,7.66,1.83,8.01
				c-4.93,0.4-21.8-19.64-28.54-26.21C1604.02,1271.02,1640.97,1257.04,1640.97,1257.04z"/>
			<path class="st50" d="M1578.22,1031.87c5.49,2.13,7.57,11.87,5.31,40.11c-2.26,28.24-12.2,41.23-15.91,47.76
				c-3.71,6.53-24.11,46.8-20.44,52.09c3.67,5.3,38.3,39.46,40.3,42.24c2,2.78,40.67,37.78,40.67,37.78l-19.68,27.51
				c0,0-83.49-65.21-90-71.72c-6.51-6.51-25.98-20.19-18.78-42.93c7.32-23.12,20.47-77.23,22.81-81.47
				C1524.83,1079,1541.93,1017.81,1578.22,1031.87z"/>
		</g>
		<g>
			<path class="st65" d="M2298.76,1697.51c0,0-2.91,6.89-8.41,14.06c-4.03,5.26-16.58,26.87-22.1,28.38
				c-5.53,1.51-22.6,4.52-24.11,14.06s-2.26,16.32,14.57,17.08c16.83,0.75,27.88,1.76,35.91-10.05
				c8.04-11.8,20.85-20.34,20.85-20.34v30.8h6.53c0,0,3.01-32.05,4.77-34.31c1.76-2.26,6.28-26.87-9.29-39.68
				C2301.9,1684.71,2298.76,1697.51,2298.76,1697.51z"/>
			<path class="st41" d="M2268.24,1739.96c0,0,15.07,3.77,20.85,0c5.78-3.77,25.41-36.96,31.92-38.95c0,0-6.3-12.79-22.25-3.5
				C2298.76,1697.51,2272.51,1734.43,2268.24,1739.96z"/>
			<path class="st65" d="M2302.71,954.71c0,0-32.49,68.5-10.13,72.6c30.71,5.63,43.13-51.11,43.13-51.11L2302.71,954.71z"/>
			<g>
				<g>
					<g>
						<path class="st41" d="M2125.29,1124.9c0,0-10.16-3.19-10.98-9.21c-0.7-5.12-5.29-11.23-6.7-13.12
							c-1.89-2.52-4.8-12.42-8-10.07c-3.2,2.35,4.02,16.54,4.94,19.82s-12.97-2.96-16.41-2.1c-3.44,0.86-12.47,24.46-2.44,27.63
							s22.84-0.04,24.5,0.86c1.65,0.91,7.21,2.6,7.21,2.6L2125.29,1124.9z"/>
					</g>
				</g>
			</g>
			<g>
				<g>
					<g>
						<path class="st41" d="M2090.65,1110.42c0,0-31.35-7.69-33.87-6.46s-2.83,2.96,0.07,3.8s30.08,8.31,30.08,8.31
							s-38.64-2.87-40.92-2.31c-1.34,0.33-2.15,3.63-0.64,4.22s39.64,5.63,39.64,5.63s-36.08-2.62-37.85-1.58
							c-1.55,0.91-1.53,4.13,1.13,4.5c2.66,0.38,36.01,4.7,36.01,4.7s-26.38-0.25-27.36,1.51c-0.6,1.08-1.43,3.9,5.38,3.75
							c6.81-0.15,22.91,1.19,22.91,1.19L2090.65,1110.42z"/>
					</g>
				</g>
			</g>
			<path class="st65" d="M2382.99,1717.48c0,0-16.83,24.99-23.61,31.02c0,0-15.07,5.53-16.58,16.07
				c-1.51,10.55-1.26,17.59,16.58,18.09c17.83,0.5,29.52-2.7,32.79-13.5s10.41-18.15,10.41-18.15v22.6h4.02c0,0,1-21.85,1.26-25.87
				c0.25-4.02,2.89-19.47-5.59-26.31C2393.79,1714.59,2382.99,1717.48,2382.99,1717.48z"/>
			<path class="st57" d="M2394.29,1235.15c0,0,21.25,27.63,27.01,60.4c5.76,32.78-3.4,142.78-3.15,158.98
				c0.25,16.2,15.32,56.51,12.31,87.02c-3.01,30.51-14.91,182.39-14.91,182.39l-32.56-6.46c0,0,1.88-154.83,0-167.64
				c-1.88-12.81-5.66-59.5-6.42-64.77c-0.75-5.27-47.83-143.76-47.83-167.39C2328.74,1294.04,2343.06,1196.59,2394.29,1235.15z"/>
			<path class="st57" d="M2287.56,1245.95c0,0-34.91,133.23-39.05,151.69c-4.14,18.46-10.15,33.68-10.15,41.52
				c0,18.18,6.76,47.39,6.76,47.39l44.33,212.02h42.22c0,0-23.52-127.2-24.16-152.07c-0.63-24.93-19.82-60.33-16.06-70.87
				c3.77-10.55,60.65-132.23,60.65-132.23S2395.17,1207.27,2287.56,1245.95z"/>
			<path class="st41" d="M2359.38,1748.5c0,0,17.23,9.63,28.33-2.74c9.37-10.44,14.56-24.33,14.56-24.33l-19.27-3.95L2359.38,1748.5
				z"/>
			<g>
				<path class="st50" d="M2301.97,1019.53c0,0-14.39,1.36-25.27,13.01c-10.88,11.65-21.08,30.23-23.93,36.45
					c-2.85,6.21-42.78,63.81-44.85,65.1c-2.07,1.29-19.52-3.29-33.5-4.46c-22.81-1.9-56.95-13.53-56.95-13.53l-5.07,25.78
					c0,0,83.94,27.09,103.32,22.32c23.69-5.84,78.22-75.8,78.22-75.8S2334.6,1040.76,2301.97,1019.53z"/>
			</g>
			<g>
				<path class="st66" d="M2327.09,1009.43c0,0-18.64,8.8-25.12,10.1c-6.47,1.29-31.59,33.92-35.99,45.83
					c-4.4,11.91,0,29.78,9.06,50.75s0.52,27.96,4.66,48.94c4.14,20.97,2.81,99.44,2.03,111.09c-0.78,11.65,121.2,29.31,145.28,8.08
					c0,0-16.3-70.72-35.6-90.9c-4.17-4.37-3.73-33.45-0.88-40.7c2.85-7.25,34.96-61.37,34.96-61.37s2.36-54.89-11.65-65.77
					c-12.17-9.45-45.34-12.82-51.29-14.89C2356.59,1008.52,2339.26,1007.62,2327.09,1009.43z"/>
			</g>
			<g>
				<path class="st41" d="M2318.19,987.92c0,0,3.72,34.2,2.94,45.34c0,0,19.37,19.41,41.41-22.66c0,0-9.27-17.34-2.29-40.97
					S2318.19,987.92,2318.19,987.92z"/>
			</g>
			<path class="st67" d="M2263.96,1123.85c0,0-4.66-31.02,0.29-49.88c0,0,0,16.22,8.89,39.25L2263.96,1123.85z"/>
			<path class="st68" d="M2375.43,923.75c0,0,4.27-5.13,5.87,0.04c1.59,5.17-3.63,20.54-4.2,22.76c0,0-2.59,8.62-3.63,7.52
				C2372.44,952.97,2375.43,923.75,2375.43,923.75z"/>
			<path class="st68" d="M2300.76,924.39c0,0-4.27-5.13-5.87,0.04c-1.59,5.17,3.63,20.54,4.2,22.76c0,0,2.59,8.62,3.63,7.52
				C2303.75,953.61,2300.76,924.39,2300.76,924.39z"/>
			<path class="st68" d="M2331.38,874.62c0,0-39.23,6.04-33.49,67.84c5.74,61.8,40.37,56.89,42.68,56.84
				c2.31-0.05,34.74,1.29,37.54-74.13C2378.12,925.18,2379.43,869.41,2331.38,874.62z"/>
			<path class="st65" d="M2370.6,921.48c0,0-43.54,12.95-64.39,8.81c0,0-1.33,7.69-4.32,8.16c-2.99,0.47-4.52-14.7-4.52-14.7
				s-1.02-50.26,44.44-50.73c45.46-0.47,36.23,54.43,36.23,54.43l-0.62,9.38C2377.41,936.84,2370.9,939.41,2370.6,921.48z"/>
			<path class="st69" d="M2356.01,993.4c0,0-13.74,13.02-34.87,1.07c0,0,6.24,10.43,18.09,10.17
				C2351.07,1004.38,2356.01,993.4,2356.01,993.4z"/>
			<path class="st41" d="M2377.42,1013.58c0,0-13.33,39.36-49.91,36.46c-36.59-2.89-17.35-33.23-17.35-33.23s9.12-5.23,11.69-5.72
				c2.57-0.49,40.45-0.97,40.45-0.97L2377.42,1013.58z"/>
			<path class="st50" d="M2310.16,1016.81c0,0-19.16,53.01-19.16,107.04c0,54.03-1.54,142.04-8.24,169.83
				c-6.69,27.79-25.73,113.74-25.73,113.74l-14.92-7.72c0,0,35.89-137.17,38.6-147.06c2.71-9.89-2.06-114.39-4.63-123.14
				c-2.57-8.75-13.52-47.7-11.82-58.5c2.15-13.62,14.89-33.78,35.48-51.11L2310.16,1016.81z"/>
			<path class="st50" d="M2370.2,1011.92c0,0-11.91,38.14-17.95,86.98c-6.04,48.85,18.53,275.57,35,327.04l63.82-10.29
				c0,0-13.74-160.26-32.39-189.43c-18.65-29.17-24.58-54.97-4.45-115.84c20.13-60.87-8.83-91.02-8.83-91.02
				S2375.79,1012.56,2370.2,1011.92z"/>
			<polygon class="st62" points="2301.34,1173.66 2378.72,1307.69 2464.75,1258.02 2390.73,1122.05 			"/>
			<polygon class="st61" points="2310.67,1178.27 2379.4,1297.3 2455.79,1253.19 2390.06,1132.44 			"/>
			<polygon class="st62" points="2336.02,1167.58 2331.2,1159.22 2362.09,1141.39 2368.12,1149.05 			"/>
			<g>
				<g>
					<g>
						<g>
							<g>
								<path class="st41" d="M2339.71,1262.67c0,0,3.52,0.02,5.06-0.73c0,0,2.7-1.57,4.69-2.57c0.63-0.31,1.19-0.58,1.57-0.71
									c1.58-0.55,5.21-1.27,8.63-3.65c3.42-2.37,15.54-16.4,15.54-16.4l-5.72-8.7l-4.2-8.91c0,0-25.44,1.64-28.88,3.49
									c-0.34,0.18-0.66,0.37-0.95,0.58c-2.76,1.84-4.04,4.37-5.39,5.51c-0.49,0.42-5.08,4.91-4.92,6.82
									c0.22,2.65,1.45,4.4,3.05,5.28c0,0,0.66,5.18,3.21,7.59c0,0,0.45,4.79,4.48,6.89
									C2335.88,1257.16,2336.88,1261.97,2339.71,1262.67z"/>
							</g>
						</g>
					</g>
				</g>
			</g>
			<g>
				<path class="st50" d="M2392.15,1019.53c0,0,23.5-6.73,36.96,19.16c13.46,25.89,13.4,36.94,15.2,49.59
					c1.7,11.94,9.37,44.54,10.15,47.9c0.78,3.37,18.15,43.51,10.18,57.54c-8.01,14.1-89.34,55.61-88.82,58.72
					c0.52,3.11-14.09-31.38-14.09-31.38s32.91-18.34,38.3-23.99c8.75-9.17,27.22-19.06,23.43-30.44
					c-4.46-13.37-17.85-58.47-20.95-65.08C2399.4,1094.94,2372.34,1027.95,2392.15,1019.53z"/>
			</g>
		</g>
	</g>
</g>
<path class="st70" d="M2277.03,1097.15c0,0,3.94-36.77,11.42-58.05c7.51-21.37,21.7-30.74,21.7-30.74s0.61-0.97,1.21-2.51
	c0.59-1.55,1.08-3.45,1.08-3.45s-19.29,7.09-28.91,35.5c-9.63,28.44-11.89,58.19-11.89,58.19L2277.03,1097.15z"/>
<path class="st70" d="M2373.69,1058.02h5.38c-0.07-1,0-2.01-0.09-3.02c-0.31-3.41-0.72-6.85-1.26-10.29
	c-4.64-29.63-22.63-42.47-22.63-42.47s0.03,1.31,0.24,2.96c0.25,2,0.69,3.51,0.69,3.51s13.39,13.8,16.63,36.22
	c0.45,3.12,0.77,6.52,1,10.06C2373.71,1055.99,2373.64,1057,2373.69,1058.02z"/>
<g>
	<path class="st71" d="M2389.67,1130.92c0,0,10.06-1.04,11.57-6.47s1.51-7.06-0.38-14.27s-7.03-22.82-7.03-22.82l1.74-0.67
		c0,0,4.31,11.08,6.43,18.88c2.12,7.8,3.63,13.9,1.21,19.92c-2.42,6.02-11.43,7.37-11.88,7.43c-1.29,0.19-1.97,0.08-1.97,0.08
		L2389.67,1130.92z"/>
	<g>
		<path class="st72" d="M2386.7,1134.12c0,0,3.9,0.84,3.63-1.95c-0.26-2.79-2.14-2.14-2.78-2.08c-0.64,0.06-1.23,0.39-1.23,0.39
			L2386.7,1134.12z"/>
		<path class="st72" d="M2383.39,1134.68c0,0,1.39,1.25,3.46,0.35c2.07-0.9,2.06-4.59,0.11-5.39s-3.01-0.22-3.33-0.07
			c-0.32,0.15-1.06,1.11-1.02,2.43C2382.66,1133.33,2382.92,1134.37,2383.39,1134.68z"/>
		<path class="st70" d="M2387.82,1134.24c0.05,0,0.09,0,0.14,0c0.89-1.19,0.82-3.19-0.16-4.18c-0.06,0.01-0.13,0.02-0.18,0.03
			C2388.6,1131.07,2388.68,1133.05,2387.82,1134.24z"/>
		<path class="st73" d="M2383.27,1134.51c0,0,1.39-0.53,1.24-2.21c-0.11-1.27-0.45-1.56-0.82-1.94c-0.25-0.26-0.45-0.34-0.45-0.34
			s-0.65,0.88-0.56,2.29C2382.78,1133.98,2383.27,1134.51,2383.27,1134.51z"/>
		<path class="st74" d="M2383.27,1134.51c0,0,1.05-0.67,1.01-2.25c-0.04-1.48-1.03-2.25-1.03-2.25s-0.51,0.64-0.45,2.29
			C2382.84,1133.94,2383.27,1134.51,2383.27,1134.51z"/>
		<path class="st75" d="M2383.02,1132.4c0-0.89,0.22-1.62,0.48-1.62c0.27,0,0.48,0.72,0.48,1.62s-0.22,1.62-0.48,1.62
			C2383.24,1134.01,2383.02,1133.29,2383.02,1132.4z"/>
		<path class="st76" d="M2383.39,1132.42c0-0.29,0.08-0.53,0.18-0.53s0.18,0.24,0.18,0.53c0,0.29-0.08,0.53-0.18,0.53
			S2383.39,1132.72,2383.39,1132.42z"/>
	</g>
	<polygon class="st70" points="2393.93,1088.63 2396.2,1087.74 2391.95,1078.15 2389.49,1079.45 	"/>
	<path class="st71" d="M2359.27,1130.92c0,0-10.06-1.04-11.57-6.47s-1.51-7.06,0.38-14.27s7.03-22.82,7.03-22.82l-1.74-0.67
		c0,0-4.31,11.08-6.43,18.88c-2.12,7.8-3.63,13.9-1.21,19.92c2.42,6.02,11.43,7.37,11.88,7.43c1.29,0.19,1.97,0.08,1.97,0.08
		L2359.27,1130.92z"/>
	<g>
		<path class="st72" d="M2362.23,1134.12c0,0-3.9,0.84-3.63-1.95c0.26-2.79,2.14-2.14,2.78-2.08c0.64,0.06,1.23,0.39,1.23,0.39
			L2362.23,1134.12z"/>
		<path class="st72" d="M2365.54,1134.68c0,0-1.39,1.25-3.46,0.35c-2.07-0.9-2.06-4.59-0.11-5.39s3.01-0.22,3.33-0.07
			c0.32,0.15,1.06,1.11,1.02,2.43C2366.28,1133.33,2366.02,1134.37,2365.54,1134.68z"/>
		<path class="st70" d="M2361.11,1134.24c-0.05,0-0.09,0-0.14,0c-0.89-1.19-0.82-3.19,0.16-4.18c0.06,0.01,0.13,0.02,0.18,0.03
			C2360.33,1131.07,2360.25,1133.05,2361.11,1134.24z"/>
		<path class="st73" d="M2365.67,1134.51c0,0-1.39-0.53-1.24-2.21c0.11-1.27,0.45-1.56,0.82-1.94c0.25-0.26,0.45-0.34,0.45-0.34
			s0.65,0.88,0.56,2.29C2366.15,1133.98,2365.67,1134.51,2365.67,1134.51z"/>
		<path class="st74" d="M2365.67,1134.51c0,0-1.05-0.67-1.01-2.25c0.04-1.48,1.03-2.25,1.03-2.25s0.51,0.64,0.45,2.29
			C2366.09,1133.94,2365.67,1134.51,2365.67,1134.51z"/>
		<path class="st75" d="M2365.91,1132.4c0-0.89-0.22-1.62-0.48-1.62s-0.48,0.72-0.48,1.62s0.22,1.62,0.48,1.62
			S2365.91,1133.29,2365.91,1132.4z"/>
		<path class="st76" d="M2365.54,1132.42c0-0.29-0.08-0.53-0.18-0.53c-0.1,0-0.18,0.24-0.18,0.53c0,0.29,0.08,0.53,0.18,0.53
			C2365.46,1132.95,2365.54,1132.72,2365.54,1132.42z"/>
	</g>
	<polygon class="st70" points="2355,1088.63 2352.73,1087.74 2356.99,1078.15 2359.44,1079.45 	"/>
	<path class="st70" d="M2359.09,1082.16l-3.69-2.06c0,0,5.67-12.88,18.44-12.71c12.76,0.17,17.08,8.14,17.93,9.25
		c0.85,1.11,1.87,3.07,1.87,3.07l-3.63,2.45c0,0-6.24-10.81-16.05-10.09C2362.56,1072.91,2359.09,1082.16,2359.09,1082.16z"/>
	<path class="st70" d="M2367.88,1068.33l13.42,0.22c0,0-4.08-2.22-4.08-3.92s-0.25-9.62-0.25-9.62h-5.32c0,0,0.11,8,0.04,9.47
		C2371.61,1065.94,2367.88,1068.33,2367.88,1068.33z"/>
</g>
<g>
	<g>
		
			<ellipse transform="matrix(0.193 -0.9812 0.9812 0.193 744.3698 3125.3628)" class="st71" cx="2272.25" cy="1110.14" rx="14.67" ry="14.92"/>
		
			<ellipse transform="matrix(0.1929 -0.9812 0.9812 0.1929 744.5481 3125.498)" class="st77" cx="2272.25" cy="1110.14" rx="13.78" ry="14.02"/>
		<path class="st71" d="M2283.03,1112.26c-1.15,5.85-6.91,9.64-12.86,8.47c-5.95-1.17-9.84-6.86-8.69-12.71
			c1.15-5.85,6.91-9.64,12.86-8.47C2280.29,1100.72,2284.18,1106.41,2283.03,1112.26z"/>
		
			<ellipse transform="matrix(0.193 -0.9812 0.9812 0.193 744.3698 3125.3628)" class="st78" cx="2272.25" cy="1110.14" rx="8.71" ry="8.86"/>
	</g>
	<path class="st79" d="M2274.74,1110.63c-0.27,1.35-1.59,2.22-2.97,1.95c-1.37-0.27-2.27-1.58-2.01-2.93
		c0.27-1.35,1.59-2.22,2.97-1.95C2274.11,1107.97,2275.01,1109.28,2274.74,1110.63z"/>
</g>
<g>
	<path class="st71" d="M1572.57,1266.39c0,0-11.83,0.29-14.1,6.38c-2.27,6.09-2.43,7.96-0.9,16.4c1.53,8.44,6.05,26.8,6.05,26.8
		l-2.09,0.61c0,0-3.98-13.09-5.72-22.23c-1.73-9.14-2.92-16.26,0.47-22.95s14.02-7.43,14.55-7.46c1.52-0.1,2.3,0.08,2.3,0.08
		L1572.57,1266.39z"/>
	<g>
		<path class="st72" d="M1576.32,1262.98c0,0-4.46-1.31-4.42,1.91c0.05,3.22,2.29,2.64,3.04,2.64c0.75-0.01,1.47-0.34,1.47-0.34
			L1576.32,1262.98z"/>
		<path class="st72" d="M1580.23,1262.64c0,0-1.5-1.56-4-0.71c-2.5,0.85-2.84,5.08-0.64,6.17c2.2,1.09,3.48,0.52,3.87,0.38
			c0.39-0.14,1.34-1.18,1.42-2.7C1580.97,1264.26,1580.76,1263.04,1580.23,1262.64z"/>
		<path class="st70" d="M1575.03,1262.74c-0.05-0.01-0.11-0.01-0.16-0.01c-1.15,1.28-1.26,3.58-0.21,4.81
			c0.08-0.01,0.15-0.01,0.21-0.01C1573.82,1266.31,1573.91,1264.04,1575.03,1262.74z"/>
		<path class="st73" d="M1580.37,1262.85c0,0-1.67,0.48-1.66,2.43c0.01,1.47,0.38,1.83,0.78,2.3c0.27,0.32,0.49,0.44,0.49,0.44
			s0.85-0.95,0.87-2.57C1580.88,1263.5,1580.37,1262.85,1580.37,1262.85z"/>
		<path class="st74" d="M1580.37,1262.85c0,0-1.29,0.68-1.39,2.49c-0.09,1.7,0.99,2.67,0.99,2.67s0.65-0.69,0.74-2.58
			C1580.8,1263.54,1580.37,1262.85,1580.37,1262.85z"/>
		<path class="st75" d="M1580.45,1265.29c-0.08,1.02-0.4,1.83-0.71,1.81c-0.31-0.02-0.49-0.87-0.41-1.9
			c0.08-1.02,0.4-1.83,0.71-1.81S1580.53,1264.27,1580.45,1265.29z"/>
		<path class="st76" d="M1580.02,1265.23c-0.03,0.34-0.15,0.6-0.26,0.59c-0.12-0.01-0.19-0.29-0.17-0.62
			c0.03-0.34,0.15-0.6,0.26-0.59C1579.98,1264.61,1580.05,1264.89,1580.02,1265.23z"/>
	</g>
	<polygon class="st70" points="1563.61,1314.51 1560.88,1315.33 1564.93,1326.7 1567.92,1325.43 	"/>
	<path class="st71" d="M1608.01,1269.11c0,0,11.63,2.09,12.88,8.45c1.25,6.36,1.1,8.23-1.79,16.33
		c-2.88,8.1-10.35,25.54-10.35,25.54l1.97,0.92c0,0,6.07-12.31,9.28-21.08c3.2-8.76,5.54-15.61,3.29-22.74
		c-2.25-7.12-12.63-9.47-13.15-9.59c-1.48-0.33-2.29-0.27-2.29-0.27L1608.01,1269.11z"/>
	<g>
		<path class="st72" d="M1604.86,1265.17c0,0,4.62-0.61,4.05,2.56c-0.57,3.17-2.69,2.26-3.44,2.14c-0.74-0.12-1.4-0.56-1.4-0.56
			L1604.86,1265.17z"/>
		<path class="st72" d="M1601.05,1264.24c0,0,1.74-1.31,4.07-0.1c2.33,1.22,1.97,5.45-0.38,6.19c-2.35,0.74-3.53-0.01-3.89-0.21
			c-0.36-0.2-1.13-1.37-0.96-2.88C1600.06,1265.73,1600.47,1264.55,1601.05,1264.24z"/>
		<path class="st70" d="M1606.17,1265.14c0.05,0,0.11,0.01,0.16,0.01c0.92,1.44,0.66,3.73-0.58,4.78c-0.07-0.02-0.14-0.03-0.21-0.05
			C1606.78,1268.84,1607.06,1266.59,1606.17,1265.14z"/>
		<path class="st73" d="M1600.88,1264.43c0,0,1.57,0.73,1.24,2.65c-0.25,1.45-0.67,1.75-1.14,2.16c-0.32,0.27-0.56,0.35-0.56,0.35
			s-0.68-1.07-0.44-2.67C1600.27,1264.98,1600.88,1264.43,1600.88,1264.43z"/>
		<path class="st74" d="M1600.88,1264.43c0,0,1.17,0.86,0.96,2.67c-0.19,1.69-1.42,2.49-1.42,2.49s-0.53-0.78-0.31-2.66
			C1600.34,1265.04,1600.88,1264.43,1600.88,1264.43z"/>
		<path class="st75" d="M1600.4,1266.83c-0.08,1.02,0.1,1.87,0.41,1.9c0.31,0.02,0.63-0.79,0.71-1.81c0.08-1.02-0.1-1.87-0.41-1.9
			C1600.81,1264.99,1600.49,1265.8,1600.4,1266.83z"/>
		<path class="st76" d="M1600.83,1266.83c-0.03,0.34,0.05,0.61,0.17,0.62c0.12,0.01,0.24-0.26,0.26-0.59
			c0.03-0.34-0.05-0.61-0.17-0.62C1600.98,1266.23,1600.86,1266.49,1600.83,1266.83z"/>
	</g>
	<polygon class="st70" points="1609,1317.99 1611.56,1319.22 1605.7,1329.83 1602.96,1328.12 	"/>
	<path class="st70" d="M1603.62,1325.04l4.1,2.7c0,0-7.83,14.26-22.69,12.93c-14.87-1.33-19.14-10.86-20.03-12.22
		c-0.89-1.35-1.89-3.68-1.89-3.68l4.46-2.49c0,0,6.26,12.96,17.77,13.01C1598.71,1335.34,1603.62,1325.04,1603.62,1325.04z"/>
	<path class="st70" d="M1592.07,1340.12l-15.63-1.45c0,0,4.55,2.91,4.39,4.87c-0.16,1.96-0.62,11.06-0.62,11.06l6.2,0.48
		c0,0,0.62-9.19,0.85-10.86C1587.49,1342.53,1592.07,1340.12,1592.07,1340.12z"/>
</g>
<rect x="1549.8" y="1324.36" class="st58" width="64.62" height="64.62"/>
</svg>
