
{
  "header": {
    "reportVersion": 1,
    "event": "Allocation failed - JavaScript heap out of memory",
    "trigger": "FatalError",
    "filename": "report.20200520.051322.16956.0.001.json",
    "dumpEventTime": "2020-05-20T05:13:23Z",
    "dumpEventTimeStamp": "1589951603003",
    "processId": 16956,
    "cwd": "C:\\wamp64\\www\\RMS\\rms-site",
    "commandLine": [
      "C:\\Program Files\\nodejs\\node.exe",
      "C:\\wamp64\\www\\RMS\\rms-site\\node_modules\\worker-farm\\lib\\child\\index.js",
      "C:\\Program Files\\nodejs\\node.exe",
      "C:\\wamp64\\www\\RMS\\rms-site\\node_modules\\@angular\\cli\\bin\\ng",
      "build",
      "--prod"
    ],
    "nodejsVersion": "v12.13.1",
    "wordSize": 64,
    "arch": "x64",
    "platform": "win32",
    "componentVersions": {
      "node": "12.13.1",
      "v8": "7.7.299.13-node.16",
      "uv": "1.33.1",
      "zlib": "1.2.11",
      "brotli": "1.0.7",
      "ares": "1.15.0",
      "modules": "72",
      "nghttp2": "1.39.2",
      "napi": "5",
      "llhttp": "1.1.4",
      "http_parser": "2.8.0",
      "openssl": "1.1.1d",
      "cldr": "35.1",
      "icu": "64.2",
      "tz": "2019c",
      "unicode": "12.1"
    },
    "release": {
      "name": "node",
      "lts": "Erbium",
      "headersUrl": "https://nodejs.org/download/release/v12.13.1/node-v12.13.1-headers.tar.gz",
      "sourceUrl": "https://nodejs.org/download/release/v12.13.1/node-v12.13.1.tar.gz",
      "libUrl": "https://nodejs.org/download/release/v12.13.1/win-x64/node.lib"
    },
    "osName": "Windows_NT",
    "osRelease": "10.0.18363",
    "osVersion": "Windows 10 Pro",
    "osMachine": "x86_64",
    "cpus": [
      {
        "model": "Intel(R) Core(TM) i5-7400T CPU @ 2.40GHz",
        "speed": 2400,
        "user": 31545890,
        "nice": 0,
        "sys": 30894765,
        "idle": 279218546,
        "irq": 2669265
      },
      {
        "model": "Intel(R) Core(TM) i5-7400T CPU @ 2.40GHz",
        "speed": 2400,
        "user": 32368968,
        "nice": 0,
        "sys": 26264734,
        "idle": 283025250,
        "irq": 300140
      },
      {
        "model": "Intel(R) Core(TM) i5-7400T CPU @ 2.40GHz",
        "speed": 2400,
        "user": 32060390,
        "nice": 0,
        "sys": 25830515,
        "idle": 283768046,
        "irq": 279546
      },
      {
        "model": "Intel(R) Core(TM) i5-7400T CPU @ 2.40GHz",
        "speed": 2400,
        "user": 45729718,
        "nice": 0,
        "sys": 49735781,
        "idle": 246193453,
        "irq": 268515
      }
    ],
    "networkInterfaces": [
      {
        "name": "Wi-Fi",
        "internal": false,
        "mac": "f4:d1:08:87:8f:52",
        "address": "fe80::d90c:b444:1557:8943",
        "netmask": "ffff:ffff:ffff:ffff::",
        "family": "IPv6",
        "scopeid": 14
      },
      {
        "name": "Wi-Fi",
        "internal": false,
        "mac": "f4:d1:08:87:8f:52",
        "address": "192.168.1.4",
        "netmask": "255.255.255.0",
        "family": "IPv4"
      },
      {
        "name": "Loopback Pseudo-Interface 1",
        "internal": true,
        "mac": "00:00:00:00:00:00",
        "address": "::1",
        "netmask": "ffff:ffff:ffff:ffff:ffff:ffff:ffff:ffff",
        "family": "IPv6",
        "scopeid": 0
      },
      {
        "name": "Loopback Pseudo-Interface 1",
        "internal": true,
        "mac": "00:00:00:00:00:00",
        "address": "127.0.0.1",
        "netmask": "255.0.0.0",
        "family": "IPv4"
      }
    ],
    "host": "DESKTOP-SOFPTIA"
  },
  "javascriptStack": {
    "message": "No stack.",
    "stack": [
      "Unavailable."
    ]
  },
  "nativeStack": [
    {
      "pc": "0x00007ff71b151729",
      "symbol": ""
    },
    {
      "pc": "0x00007ff71b155b4c",
      "symbol": ""
    },
    {
      "pc": "0x00007ff71b154b08",
      "symbol": ""
    },
    {
      "pc": "0x00007ff71b24369b",
      "symbol": ""
    },
    {
      "pc": "0x00007ff71ba482de",
      "symbol": ""
    },
    {
      "pc": "0x00007ff71ba30321",
      "symbol": ""
    },
    {
      "pc": "0x00007ff71b8fdbec",
      "symbol": ""
    },
    {
      "pc": "0x00007ff71b8d9be3",
      "symbol": ""
    },
    {
      "pc": "0x00007ff71b8d7edb",
      "symbol": ""
    },
    {
      "pc": "0x00007ff71b90355d",
      "symbol": ""
    },
    {
      "pc": "0x00007ff71b905264",
      "symbol": ""
    },
    {
      "pc": "0x00007ff71b8fb353",
      "symbol": ""
    },
    {
      "pc": "0x00007ff71b8f9b24",
      "symbol": ""
    },
    {
      "pc": "0x00007ff71b91adf5",
      "symbol": ""
    },
    {
      "pc": "0x00007ff71b686ca7",
      "symbol": ""
    },
    {
      "pc": "0x00007ff71be7404d",
      "symbol": ""
    },
    {
      "pc": "0x0000027b7ab8ba08",
      "symbol": ""
    }
  ],
  "javascriptHeap": {
    "totalMemory": 73441280,
    "totalCommittedMemory": 73441280,
    "usedMemory": 39211424,
    "availableMemory": 2157880480,
    "memoryLimit": 2197815296,
    "heapSpaces": {
      "read_only_space": {
        "memorySize": 262144,
        "committedMemory": 262144,
        "capacity": 261872,
        "used": 32296,
        "available": 229576
      },
      "new_space": {
        "memorySize": 33554432,
        "committedMemory": 33554432,
        "capacity": 16759808,
        "used": 3775136,
        "available": 12984672
      },
      "old_space": {
        "memorySize": 29995008,
        "committedMemory": 29995008,
        "capacity": 26550560,
        "used": 26426024,
        "available": 124536
      },
      "code_space": {
        "memorySize": 688128,
        "committedMemory": 688128,
        "capacity": 333024,
        "used": 333024,
        "available": 0
      },
      "map_space": {
        "memorySize": 528384,
        "committedMemory": 528384,
        "capacity": 288880,
        "used": 288880,
        "available": 0
      },
      "large_object_space": {
        "memorySize": 8364032,
        "committedMemory": 8364032,
        "capacity": 8352512,
        "used": 8352512,
        "available": 0
      },
      "code_large_object_space": {
        "memorySize": 49152,
        "committedMemory": 49152,
        "capacity": 3552,
        "used": 3552,
        "available": 0
      },
      "new_large_object_space": {
        "memorySize": 0,
        "committedMemory": 0,
        "capacity": 16759808,
        "used": 0,
        "available": 16759808
      }
    }
  },
  "resourceUsage": {
    "userCpuSeconds": 1.015,
    "kernelCpuSeconds": 0.25,
    "cpuConsumptionPercent": 126.5,
    "maxRss": 92160000,
    "pageFaults": {
      "IORequired": 45448,
      "IONotRequired": 0
    },
    "fsActivity": {
      "reads": 24,
      "writes": 5
    }
  },
  "libuv": [
  ],
  "environmentVariables": {
    "ALLUSERSPROFILE": "C:\\ProgramData",
    "APPDATA": "C:\\Users\\Hamad\\AppData\\Roaming",
    "BROWSERSLIST_IGNORE_OLD_DATA": "1",
    "CommonProgramFiles": "C:\\Program Files\\Common Files",
    "CommonProgramFiles(x86)": "C:\\Program Files (x86)\\Common Files",
    "CommonProgramW6432": "C:\\Program Files\\Common Files",
    "COMPUTERNAME": "DESKTOP-SOFPTIA",
    "ComSpec": "C:\\WINDOWS\\system32\\cmd.exe",
    "configsetroot": "C:\\WINDOWS\\ConfigSetRoot",
    "dp0": "C:\\wamp64\\www\\RMS\\rms-site\\node_modules\\.bin\\",
    "DriverData": "C:\\Windows\\System32\\Drivers\\DriverData",
    "GOOGLE_API_KEY": "no",
    "GOOGLE_DEFAULT_CLIENT_ID": "no",
    "GOOGLE_DEFAULT_CLIENT_SECRET": "no",
    "HOMEDRIVE": "C:",
    "HOMEPATH": "\\Users\\Hamad",
    "LOCALAPPDATA": "C:\\Users\\Hamad\\AppData\\Local",
    "LOGONSERVER": "\\\\DESKTOP-SOFPTIA",
    "NUMBER_OF_PROCESSORS": "4",
    "OneDrive": "C:\\Users\\Hamad\\OneDrive",
    "OneDriveConsumer": "C:\\Users\\Hamad\\OneDrive",
    "OS": "Windows_NT",
    "PATH": "C:\\wamp64\\www\\RMS\\rms-site\\node_modules\\.bin;C:\\Program Files (x86)\\Common Files\\Oracle\\Java\\javapath;C:\\Program Files (x86)\\Intel\\Intel(R) Management Engine Components\\iCLS\\;C:\\Program Files\\Intel\\Intel(R) Management Engine Components\\iCLS\\;C:\\WINDOWS\\system32;C:\\WINDOWS;C:\\WINDOWS\\System32\\Wbem;C:\\WINDOWS\\System32\\WindowsPowerShell\\v1.0\\;C:\\WINDOWS\\System32\\OpenSSH\\;C:\\Program Files (x86)\\Intel\\Intel(R) Management Engine Components\\DAL;C:\\Program Files\\Intel\\Intel(R) Management Engine Components\\DAL;C:\\Program Files (x86)\\Intel\\Intel(R) Management Engine Components\\IPT;C:\\Program Files\\Intel\\Intel(R) Management Engine Components\\IPT;C:\\Program Files\\Git\\cmd;C:\\wamp64\\bin\\php\\php7.3.5;C:\\composer;C:\\Program Files\\Intel\\WiFi\\bin\\;C:\\Program Files\\Common Files\\Intel\\WirelessCommon\\;C:\\Program Files\\Symfony;C:\\OpenSSL-Win64\\bin;C:\\Program Files\\Java\\jdk1.8.0_231\\bin;C:\\Program Files\\nodejs\\;C:\\Program Files\\PuTTY\\;C:\\Users\\Hamad\\AppData\\Local\\Microsoft\\WindowsApps;C:\\Users\\Hamad\\AppData\\Roaming\\Composer\\vendor\\bin;C:\\Users\\Hamad\\AppData\\Local\\Programs\\Microsoft VS Code\\bin;C:\\Users\\Hamad\\AppData\\Local\\atom\\bin;C:\\Users\\Hamad\\AppData\\Local\\Microsoft\\WindowsApps;C:\\Users\\Hamad\\AppData\\Roaming\\npm",
    "PATHEXT": ".COM;.EXE;.BAT;.CMD;.VBS;.VBE;.JSE;.WSF;.WSH;.MSC",
    "PROCESSOR_ARCHITECTURE": "AMD64",
    "PROCESSOR_IDENTIFIER": "Intel64 Family 6 Model 158 Stepping 9, GenuineIntel",
    "PROCESSOR_LEVEL": "6",
    "PROCESSOR_REVISION": "9e09",
    "ProgramData": "C:\\ProgramData",
    "ProgramFiles": "C:\\Program Files",
    "ProgramFiles(x86)": "C:\\Program Files (x86)",
    "ProgramW6432": "C:\\Program Files",
    "PROMPT": "$P$G",
    "PSModulePath": "C:\\Program Files\\WindowsPowerShell\\Modules;C:\\WINDOWS\\system32\\WindowsPowerShell\\v1.0\\Modules",
    "PUBLIC": "C:\\Users\\Public",
    "SESSIONNAME": "Console",
    "SystemDrive": "C:",
    "SystemRoot": "C:\\WINDOWS",
    "TEMP": "C:\\Users\\Hamad\\AppData\\Local\\Temp",
    "TERMINAL_EMULATOR": "JetBrains-JediTerm",
    "TMP": "C:\\Users\\Hamad\\AppData\\Local\\Temp",
    "USERDOMAIN": "DESKTOP-SOFPTIA",
    "USERDOMAIN_ROAMINGPROFILE": "DESKTOP-SOFPTIA",
    "USERNAME": "Hamad",
    "USERPROFILE": "C:\\Users\\Hamad",
    "WEBPACK_DEV_SERVER": "true",
    "windir": "C:\\WINDOWS",
    "_prog": "node",
    "__INTELLIJ_COMMAND_HISTFILE__": "C:\\Users\\Hamad\\.PhpStorm2019.1\\config\\terminal\\history\\history-49"
  },
  "sharedObjects": [
    "C:\\Program Files\\nodejs\\node.exe",
    "C:\\WINDOWS\\SYSTEM32\\ntdll.dll",
    "C:\\Program Files\\Avast Software\\Avast\\aswhook.dll",
    "C:\\WINDOWS\\System32\\KERNEL32.DLL",
    "C:\\WINDOWS\\System32\\KERNELBASE.dll",
    "C:\\WINDOWS\\System32\\WS2_32.dll",
    "C:\\WINDOWS\\System32\\RPCRT4.dll",
    "C:\\WINDOWS\\System32\\ADVAPI32.dll",
    "C:\\WINDOWS\\System32\\msvcrt.dll",
    "C:\\WINDOWS\\System32\\sechost.dll",
    "C:\\WINDOWS\\System32\\USER32.dll",
    "C:\\WINDOWS\\System32\\win32u.dll",
    "C:\\WINDOWS\\System32\\GDI32.dll",
    "C:\\WINDOWS\\System32\\gdi32full.dll",
    "C:\\WINDOWS\\System32\\msvcp_win.dll",
    "C:\\WINDOWS\\System32\\ucrtbase.dll",
    "C:\\WINDOWS\\System32\\PSAPI.DLL",
    "C:\\WINDOWS\\System32\\CRYPT32.dll",
    "C:\\WINDOWS\\System32\\MSASN1.dll",
    "C:\\WINDOWS\\System32\\bcrypt.dll",
    "C:\\WINDOWS\\SYSTEM32\\dbghelp.dll",
    "C:\\WINDOWS\\SYSTEM32\\IPHLPAPI.DLL",
    "C:\\WINDOWS\\SYSTEM32\\USERENV.dll",
    "C:\\WINDOWS\\System32\\profapi.dll",
    "C:\\WINDOWS\\SYSTEM32\\WINMM.dll",
    "C:\\WINDOWS\\SYSTEM32\\WINMMBASE.dll",
    "C:\\WINDOWS\\System32\\cfgmgr32.dll",
    "C:\\WINDOWS\\System32\\bcryptPrimitives.dll",
    "C:\\WINDOWS\\System32\\IMM32.DLL",
    "C:\\WINDOWS\\System32\\powrprof.dll",
    "C:\\WINDOWS\\System32\\UMPDC.dll",
    "C:\\WINDOWS\\SYSTEM32\\CRYPTBASE.DLL",
    "C:\\WINDOWS\\system32\\uxtheme.dll",
    "C:\\WINDOWS\\System32\\combase.dll",
    "C:\\WINDOWS\\system32\\mswsock.dll",
    "C:\\WINDOWS\\System32\\kernel.appcore.dll",
    "C:\\WINDOWS\\System32\\NSI.dll",
    "C:\\WINDOWS\\SYSTEM32\\dhcpcsvc6.DLL",
    "C:\\WINDOWS\\SYSTEM32\\dhcpcsvc.DLL",
    "C:\\WINDOWS\\SYSTEM32\\DNSAPI.dll",
    "C:\\WINDOWS\\system32\\pnrpnsp.dll",
    "C:\\WINDOWS\\system32\\NLAapi.dll"
  ]
}